{
    "keys": [
        {
            "kty": "RSA",
            "use": "sig",
            "kid": "E7HXMs283OkjrOAaClz0o4gwuCAV2ONDX9sYefm0sk0",
            "alg": "RS256",
            "e": "AQAB",
            "n": "j8HMzhgBIMk8-BFXCmJC1AT9CihMkEMbsPQ0tO4XwZRqDnnBwCok2bydxuU_MJWi4NF-agF9xEC49cc3Mq84YFvmNSI204OUVHsDUYd41c4gycJl9qVV74fUOx-ysjY8SykkZhEWHkJfjBy9CISErBtBzb2dMr2j00bc8Ph_eglHEXhuV4v1bnD6wWNLbEk0hd2eRHIEQ6L0cF6Mu1V4HRj2rpFExGeOoBcZ60r8bDrA5TJ0XWayQHyv5sUFy6OXAGt4Pc-eaTrhji9atwAy99gZslUpM2ZYR8UU5CtAYPjnaIJ8a6XlPX1tUycQFTtniiLXlGS9I29aLOeCMfz2hkeONQWjPiSVjsjyqS8WCZtCGOQo-5q8VQFEwgQ7R8msmMO0KmwtziJ3qi2xt0DzxYOzY66lauGonyvxXnGwbFLtHFijOMrERPLF1ZIkGg1cb4O74dg26g4Zwu0st7mgDLwX6GjoBqt0fDWLAvXyGob1PJNihWYg7AHg6hi-WVyNr6prT3ylAgp467POFNEofoSfpqY4OjyTNm9QUwAo0NvExgAIV_HcCa061lATcNd5z5UD1rf5ZipLvqU_Zuh2H-eifWtyQcpkKmFDiAwLhzdxiAnPm6NGkTmeZEKopWBba3_LZUbKa7CUW5U1YrV1jPRxMuDM1fpVyobf3xJBX-M"
        }
    ]
}